…
```
## `summarise()` regrouping output by 'Gender', 'age' (override with `.groups` argument)
```

```r
summary
```

```
## # A tibble: 69 x 4
## # Groups:   Gender, age [11]
##    Gender age   Education_Level mean_util_ratio
##    <chr>  <fct> <chr>                     <dbl>
##  1 F      20-29 College                   0.377
##  2 F      20-29 Graduate                  0.373
##  3 F      20-29 High School               0.328
##  4 F      20-29 Post-Graduate             0.483
##  5 F      20-29 Uneducated                0.256
##  6 F      20-29 Unknown                   0.386
##  7 F      30-39 College                   0.357
##  8 F      30-39 Doctorate                 0.317
##  9 F      30-39 Graduate                  0.342
## 10 F      30-39 High School               0.333
## # … with 59 more rows
```
…
```
## `summarise()` regrouping output by 'Marital_Status' (override with `.groups` argument)
```

```r
summary2
```

```
## # A tibble: 24 x 3
## # Groups:   Marital_Status [4]
##    Marital_Status Dependent_count mean_util_ratio
##    <chr>                    <int>           <dbl>
##  1 Divorced                     0           0.218
##  2 Divorced                     1           0.252
##  3 Divorced                     2           0.256
##  4 Divorced                     3           0.263
##  5 Divorced                     4           0.280
##  6 Divorced                     5           0.237
##  7 Married                      0           0.337
##  8 Married                      1           0.324
##  9 Married                      2           0.282
## 10 Married                      3           0.275
## # … with 14 more rows
```
…
```
## `summarise()` regrouping output by 'Card_Category', 'Credit_Limit' (override with `.groups` argument)
```

```r
summary3
```

```
## # A tibble: 9,432 x 4
## # Groups:   Card_Category, Credit_Limit [6,251]
##    Card_Category Credit_Limit Total_Revolving_Bal mean_util_ratio
##    <chr>                <dbl>               <int>           <dbl>
##  1 Blue                 1438.                   0           0    
##  2 Blue                 1438.                 170           0.118
##  3 Blue                 1438.                 306           0.213
##  4 Blue                 1438.                 312           0.217
##  5 Blue                 1438.                 327           0.227
##  6 Blue                 1438.                 361           0.251
##  7 Blue                 1438.                 455           0.316
##  8 Blue                 1438.                 458           0.318
##  9 Blue                 1438.                 468           0.325
## 10 Blue                 1438.                 479           0.333
## # … with 9,422 more rows
```
