…
```r
# Netflix trends - movie vs TV shows
group <- df %>%
  filter(!(date_added == "")) %>%
  group_by(type, date_added) %>% # group by content type and year added
  summarise(count = n())
group
```

```
## # A tibble: 24 x 3
## # Groups:   type [2]
##    type  date_added count
##    <chr> <chr>      <int>
##  1 Movie 2008           1
##  2 Movie 2009           2
##  3 Movie 2010           1
##  4 Movie 2011          13
##  5 Movie 2012           3
##  6 Movie 2013           6
##  7 Movie 2014          19
##  8 Movie 2015          58
##  9 Movie 2016         258
## 10 Movie 2017         864
## # … with 14 more rows
```
…
```r
movie_genre <- movie %>% 
  mutate(listed_in = strsplit(as.character(listed_in), ", ")) %>% 
  unnest(listed_in) %>%
  select("title","date_added","listed_in")
movie_genre
```

```
## # A tibble: 11,546 x 3
##    title date_added listed_in           
##    <chr> <chr>      <chr>               
##  1 7:19  2016       Dramas              
##  2 7:19  2016       International Movies
##  3 23:59 2018       Horror Movies       
##  4 23:59 2018       International Movies
##  5 9     2017       Action & Adventure  
##  6 9     2017       Independent Movies  
##  7 9     2017       Sci-Fi & Fantasy    
##  8 21    2020       Dramas              
##  9 122   2020       Horror Movies       
## 10 122   2020       International Movies
## # … with 11,536 more rows
```
…
```r
movie_genre <- movie_genre %>%
  group_by(date_added, listed_in) %>%
  summarise(count = n())
movie_genre
```

```
## # A tibble: 165 x 3
## # Groups:   date_added [14]
##    date_added listed_in                count
##    <chr>      <chr>                    <int>
##  1 2008       Dramas                       1
##  2 2008       Independent Movies           1
##  3 2008       Thrillers                    1
##  4 2009       Dramas                       1
##  5 2009       Horror Movies                1
##  6 2009       International Movies         1
##  7 2010       Cult Movies                  1
##  8 2010       Horror Movies                1
##  9 2011       Children & Family Movies     1
## 10 2011       Dramas                      13
## # … with 155 more rows
```
…
#### Netflix genre trends by country

```r
genre_country <- movie %>% 
  mutate(listed_in = strsplit(as.character(listed_in), ", ")) %>% 
  unnest(listed_in) %>%
  mutate(country = strsplit(as.character(country), ", ")) %>% 
  unnest(country) %>%
  select("title","country","date_added","listed_in")
genre_country
```

```
## # A tibble: 14,342 x 4
##    title country       date_added listed_in           
##    <chr> <chr>         <chr>      <chr>               
##  1 7:19  Mexico        2016       Dramas              
##  2 7:19  Mexico        2016       International Movies
##  3 23:59 Singapore     2018       Horror Movies       
##  4 23:59 Singapore     2018       International Movies
##  5 9     United States 2017       Action & Adventure  
##  6 9     United States 2017       Independent Movies  
##  7 9     United States 2017       Sci-Fi & Fantasy    
##  8 21    United States 2020       Dramas              
##  9 122   Egypt         2020       Horror Movies       
## 10 122   Egypt         2020       International Movies
## # … with 14,332 more rows
```
…
```r
genre_country <- genre_country %>%
  mutate(country = gsub(",","",country))
genre_country
```

```
## # A tibble: 14,342 x 4
##    title country       date_added listed_in           
##    <chr> <chr>         <chr>      <chr>               
##  1 7:19  Mexico        2016       Dramas              
##  2 7:19  Mexico        2016       International Movies
##  3 23:59 Singapore     2018       Horror Movies       
##  4 23:59 Singapore     2018       International Movies
##  5 9     United States 2017       Action & Adventure  
##  6 9     United States 2017       Independent Movies  
##  7 9     United States 2017       Sci-Fi & Fantasy    
##  8 21    United States 2020       Dramas              
##  9 122   Egypt         2020       Horror Movies       
## 10 122   Egypt         2020       International Movies
## # … with 14,332 more rows
```
…
